<?xml version="1.0" standalone="no"?>
<!DOCTYPE svg PUBLIC "-//W3C//DTD SVG 1.1//EN" "http://www.w3.org/Graphics/SVG/1.1/DTD/svg11.dtd" >
<svg xmlns="http://www.w3.org/2000/svg">
<metadata>Generated by IcoMoon</metadata>
<defs>
<font id="automator-logo" horiz-adv-x="1024">
<font-face units-per-em="1024" ascent="960" descent="-64" />
<missing-glyph horiz-adv-x="1024" />
<glyph unicode="&#x20;" d="" horiz-adv-x="512" />
<glyph unicode="&#xe6969;" d="M17.821-37.173h164.412l74.295 217.71h-158.69zM717.569-37.173h165.069l-79.085 217.71h-159.621zM449.572 741.414h3.997l133.396-393.208h155.652l-213.522 587.704h-153.708l-215.958-587.704h154.858zM1697.332 935.91v-659.645c0-106.049-32.411-187.132-97.234-243.278s-149.383-84.204-253.625-84.204c-102.928 0-186.256 28.168-249.957 84.533-63.728 56.364-95.565 137.338-95.565 242.949v659.645h80.207v-659.152c0-82.808 24.5-146.81 73.528-192.005 49-45.195 112.947-67.779 191.813-67.779 80.207 0 145.468 22.475 195.81 67.451 50.342 44.976 75.526 109.088 75.526 192.334v659.152h79.496zM2587.525 867.72h-334.818v-904.921h-80.207v904.921h-334.818v68.19h749.871v-68.19zM3437.642 369.832c0-125.649-34.437-227.236-103.229-304.761-68.874-77.525-161.209-116.287-277.003-116.287-114.097 0-205.090 38.762-273.034 116.287-67.944 77.525-101.915 179.112-101.915 304.761v158.389c0 125.184 33.862 226.771 101.587 304.761 67.725 77.963 158.608 116.944 272.651 116.944 115.849 0 208.293-38.981 277.386-116.944 69.011-77.99 103.558-179.577 103.558-304.761v-158.389zM3358.119 529.015c0 105.31-26.635 190.089-79.879 254.364s-127.1 96.386-221.57 96.386c-92.663 0-164.822-32.138-216.533-96.386s-77.525-149.027-77.525-254.364v-159.977c0-106.213 25.951-191.43 77.853-255.706s124.171-96.386 216.889-96.386c94.908 0 168.737 32.001 221.515 96.057 52.833 64.029 79.249 149.383 79.249 256.034v159.977zM3753.079 935.91l357.566-856.796h3.997l358.88 856.796h105.584v-973.083h-79.523v429.726l6.679 425.729-3.997 1.341-361.563-856.796h-55.461l-360.906 852.772-3.997-0.657 7.364-422.389v-429.726h-79.523v973.083h104.899zM5369.108 234.164h-445.767l-100.246-271.337h-82.863l369.584 973.083h75.526l366.901-973.083h-82.863l-100.273 271.337zM4950.086 305.666h392.962l-193.812 526.632h-3.997l-195.153-526.632zM6267.349 867.72h-334.818v-904.921h-80.207v904.921h-334.818v68.19h749.871v-68.19zM7117.411 369.832c0-125.649-34.437-227.236-103.229-304.761-68.874-77.525-161.209-116.287-277.030-116.287-114.070 0-205.063 38.762-273.034 116.287-67.916 77.525-101.915 179.112-101.915 304.761v158.389c0 125.184 33.835 226.771 101.587 304.761 67.725 77.963 158.608 116.944 272.678 116.944 115.822 0 208.266-38.981 277.359-116.944 69.039-77.99 103.585-179.577 103.585-304.761v-158.389zM7037.888 529.015c0 105.31-26.635 190.089-79.852 254.364-53.244 64.275-127.127 96.386-221.57 96.386-92.69 0-164.85-32.138-216.533-96.386-51.711-64.275-77.525-149.027-77.525-254.364v-159.977c0-106.213 25.951-191.43 77.853-255.706 51.902-64.275 124.198-96.386 216.889-96.386 94.908 0 168.764 32.001 221.542 96.057 52.833 64.029 79.222 149.383 79.222 256.034v159.977zM7405.474 402.572v-439.745h-79.523v972.399h329.48c104.27 0 184.203-22.83 239.938-68.491 55.68-45.661 83.547-112.4 83.547-200.163 0-51.683-14.947-97.919-44.785-138.679-29.866-40.761-71.968-70.517-126.306-89.214 60.142-15.166 103.476-42.212 130.002-81.193 26.499-38.981 39.748-87.872 39.748-146.7v-91.568c0-30.304 3.559-57.487 10.703-81.549 7.117-24.062 18.916-43.662 35.423-58.801v-16.041h-81.549c-16.507 16.041-28.059 38.543-34.766 67.506-6.679 28.962-10.019 59.020-10.019 90.227v88.885c0 59.704-19.272 106.816-57.815 141.362-38.516 34.519-92.334 51.793-161.4 51.793h-272.678zM7405.474 470.735h239.938c87.763 0 151.929 17.711 192.47 53.134 40.514 35.423 60.826 83.219 60.826 143.361 0 64.166-20.148 113.495-60.498 148.042-40.323 34.519-101.231 51.793-182.78 51.793h-249.957v-396.329z" horiz-adv-x="8041" />
</font></defs></svg>