<?xml version="1.0" standalone="no"?>
<!DOCTYPE svg PUBLIC "-//W3C//DTD SVG 1.1//EN" "http://www.w3.org/Graphics/SVG/1.1/DTD/svg11.dtd" >
<svg xmlns="http://www.w3.org/2000/svg">
<metadata>Generated by IcoMoon</metadata>
<defs>
<font id="icomoon" horiz-adv-x="512">
<font-face units-per-em="512" ascent="480" descent="-32" />
<missing-glyph horiz-adv-x="512" />
<glyph unicode="&#x20;" d="" horiz-adv-x="256" />
<glyph unicode="&#xe7070;" d="M43.973 387.806c0 10.638-5.687 15.606-15.605 15.606h-28.367v76.589h85.805c33.335 0 48.221-14.903 48.221-48.221v-104.956c0-17.73-1.422-30.491-1.422-30.491h1.422c0 0 31.913 50.345 108.484 50.345 97.864 0 160.269-77.291 160.269-189.339 0-114.874-70.199-189.339-165.939-189.339-75.167 0-107.782 51.048-107.782 51.048h-1.404c0 0 1.422-9.935 1.422-24.119v-18.432h-85.102v411.31zM221.251 43.886c48.924 0 90.772 40.427 90.772 112.048 0 68.777-36.881 113.469-90.053 113.469-46.799 0-90.772-34.037-90.772-114.172 0-56.033 29.772-111.346 90.053-111.346zM632.63 346.677c103.534 0 160.269-75.886 160.269-171.609 0-10.638-2.124-33.335-2.124-33.335h-249.619c7.092-63.827 53.891-97.144 108.485-97.144 58.157 0 101.41 40.427 101.41 40.427l37.583-62.405c0 0-55.313-54.611-145.365-54.611-119.842 0-194.306 86.507-194.306 189.339 0 111.346 75.167 189.339 183.668 189.339zM700.705 204.137c-1.422 43.254-31.194 73.043-68.075 73.043-46.080 0-78.712-27.648-88.631-73.043h156.706zM1059.597 203.435h11.34v2.844c0 51.767-20.573 70.918-66.653 70.918-16.308 0-48.221-4.249-48.221-24.102v-19.151h-83.68v38.285c0 67.373 95.020 74.464 132.603 74.464 120.562 0 156.004-63.124 156.004-143.961v-134.728c0-9.935 5.67-15.606 15.605-15.606h28.368v-75.886h-80.836c-33.335 0-46.097 18.432-46.097 39.707 0 9.216 0.719 15.606 0.719 15.606h-1.422c0 0-27.648-63.827-109.204-63.827-64.529 0-123.388 40.41-123.388 112.75-0.017 113.469 156.004 122.685 214.862 122.685zM990.1 38.199c48.221 0 82.258 51.048 82.258 95.021v8.514h-15.605c-46.799 0-121.264-6.389-121.264-56.735 0-24.102 17.73-46.8 54.611-46.8zM1247.599 248.813c-3.546 9.216-9.936 12.762-19.853 12.762h-7.812v76.589h51.767c29.789 0 43.973-9.216 53.189-34.038l68.075-190.041c7.812-21.276 13.482-51.767 13.482-51.767h1.422c0 0 5.687 30.491 12.762 51.767l68.075 190.041c9.233 24.822 24.119 34.037 53.189 34.037h48.221v-76.588h-8.514c-9.936 0-16.308-3.546-19.853-12.762l-103.534-272.3h-107.080l-103.534 272.3zM1797.234 346.677c103.534 0 160.268-75.886 160.268-171.609 0-10.638-2.124-33.335-2.124-33.335h-249.619c7.092-63.827 53.891-97.144 108.485-97.144 58.157 0 101.41 40.427 101.41 40.427l37.583-62.405c0 0-55.313-54.611-145.365-54.611-119.842 0-194.306 86.507-194.306 189.339 0 111.346 75.167 189.339 183.668 189.339zM1865.308 204.137c-1.422 43.254-31.194 73.043-68.075 73.043-46.080 0-78.713-27.648-88.631-73.043h156.706zM2044.797 245.987c0 10.638-5.67 15.605-15.605 15.605h-28.368v76.572h82.258c31.914 0 48.221-13.464 48.221-43.956v-21.275c0-13.481-1.422-22.697-1.422-22.697h1.422c16.308 51.767 59.579 92.897 114.891 92.897 7.794 0 16.308-1.422 16.308-1.422v-88.631c0 0-9.216 1.422-21.995 1.422-38.285 0-82.258-21.978-98.566-75.869-4.968-17.729-7.811-37.584-7.811-58.859v-143.241h-89.351v269.455zM2327.066 387.806c0 10.638-5.687 15.606-15.606 15.606h-28.367v76.589h85.805c33.335 0 48.221-14.903 48.221-48.221v-104.956c0-17.73-1.422-30.491-1.422-30.491h1.422c0 0 31.914 50.345 108.485 50.345 97.864 0 160.269-77.291 160.269-189.339 0-114.874-70.199-189.339-165.939-189.339-75.166 0-107.782 51.048-107.782 51.048h-1.422c0 0 1.422-9.935 1.422-24.119v-18.432h-85.085v411.31zM2504.345 43.886c48.923 0 90.772 40.427 90.772 112.048 0 68.777-36.881 113.469-90.052 113.469-46.8 0-90.772-34.037-90.772-114.172 0-56.033 29.789-111.346 90.052-111.346zM2766.811 245.987c0 10.638-5.67 15.605-15.606 15.605h-28.367v76.572h85.805c33.335 0 47.519-14.886 47.519-47.501v-166.658c0-43.956 11.34-73.745 56.015-73.745 65.249 0 101.41 57.454 101.41 121.983v165.921h90.052v-270.175c0-9.935 5.687-15.606 15.606-15.606h28.367v-75.886h-82.978c-31.194 0-47.501 14.886-47.501 40.427v9.918c0 8.514 0.72 16.308 0.72 16.308h-1.422c-17.010-37.584-62.405-75.167-124.809-75.167-77.291 0-124.809 39.005-124.809 137.572v140.432zM3223.567 245.987c0 10.638-5.67 15.605-15.606 15.605h-28.367v76.572h85.805c33.335 0 47.501-14.886 47.501-48.221v-221.954c0-9.935 5.67-15.606 15.606-15.606h28.35v-75.886h-85.805c-33.318 0-47.501 14.183-47.501 48.221v221.269zM3227.832 480h77.993v-82.978h-77.993v82.978zM3430.669 387.806c0 10.638-5.67 15.606-15.588 15.606h-28.367v76.589h85.805c33.335 0 48.221-14.903 48.221-48.221v-363.791c0-9.935 5.67-15.606 15.588-15.606h27.665v-75.886h-85.102c-34.037 0-48.221 14.183-48.221 48.221v363.089zM3767.532 346.677c78.713 0 104.253-43.973 104.253-43.973h1.405c0 0-0.702 9.233-0.702 21.276v63.827c0 10.638-5.67 15.606-15.606 15.606h-28.35v76.588h85.805c33.318 0 48.221-14.903 48.221-48.221v-363.791c0-9.935 5.67-15.606 15.588-15.606h27.648v-75.886h-82.961c-32.615 0-44.675 15.606-44.675 36.881 0 7.794 0 13.464 0 13.464h-1.422c0 0-29.772-58.859-112.75-58.859-97.864 0-160.954 77.291-160.954 189.339-0.017 114.909 68.76 189.356 164.5 189.356zM3874.611 158.058c0 56.033-29.070 111.346-89.351 111.346-49.626 0-90.772-40.427-90.772-112.048 0-68.794 36.162-113.469 89.351-113.469 46.816 0 90.772 34.038 90.772 114.172zM4227.833 346.677c103.534 0 160.252-75.886 160.252-171.609 0-10.638-2.124-33.335-2.124-33.335h-249.619c7.092-63.827 53.891-97.144 108.502-97.144 58.157 0 101.41 40.427 101.41 40.427l37.583-62.405c0 0-55.313-54.611-145.365-54.611-119.842 0-194.323 86.507-194.323 189.339 0 111.346 75.184 189.339 183.686 189.339zM4295.908 204.137c-1.422 43.254-31.194 73.043-68.075 73.043-46.097 0-78.73-27.648-88.648-73.043h156.723zM4475.362 245.987c0 10.638-5.67 15.605-15.588 15.605h-28.368v76.572h82.275c31.896 0 48.204-13.464 48.204-43.956v-21.275c0-13.481-1.422-22.697-1.422-22.697h1.422c16.308 51.767 59.578 92.897 114.874 92.897 7.811 0 16.308-1.422 16.308-1.422v-88.631c0 0-9.216 1.422-21.978 1.422-38.285 0-82.258-21.978-98.566-75.869-4.967-17.729-7.794-37.584-7.794-58.859v-143.241h-89.368v269.455z" horiz-adv-x="4693" />
</font></defs></svg>