Product Title,SKU,Parent SKU,Price,Colour,Product Categories,Description
JELLY ROLLS,JELRL,,,,Jelly Rolls,These Jelly Rolls are collections of 20 lenghts of fabric - 10 designs x 2 pieces of each; approximately 7 x 110cm 
Bundles,JELRLBUN,JELRL,,,Jelly Rolls,
Oranges,JELRL01,JELRL,$21.95,,Jelly Rolls,
Orange & Pink Swirls,JELRL01a,JELRL01a,$21.95,,Jelly Rolls,"Orange, Pink & Yellow Swirls Composition: 100% Cotton Size: 7 x 110cm "
Orange with Red Flower,JELRL01b,JELRL01a,$21.95,,Jelly Rolls,Orange with Red Flower Composition: 100% Cotton Size: 7 x 110cm 
Desert Rose,JELRL01c,JELRL01a,$21.95,,Jelly Rolls,Orange flowers with hints of yellow gold with a black black ground. Composition: 100% Cotton Size: 7 x 110cm
Blues,JELRL02,JELRL,$21.95,,Jelly Rolls,
Pinks,JELRL03,JELRL,$21.95,,Jelly Rolls,
Blacks,JELRL04,JELRL,$21.95,,Jelly Rolls,
White,JELRL05,JELRL,$21.95,,Jelly Rolls,
Purples,JELRL06,JELRL,$21.95,,Jelly Rolls,
Yellows,JELRL07,JELRL,$21.95,,Jelly Rolls,
Greens,JELRL08,JELRL,$21.95,,Jelly Rolls,
Creams,JELRL09,JELRL,$21.95,,Jelly Rolls,
Assorted colours,,JELRL,,,Jelly Rolls,
Cottages,JELRL10a,JELRL,$21.95,Assorted colours,Jelly Rolls,"These Jelly Rolls have a cottage theme with pink butterflies, strips, dots & flowers in green, purple, pink, black & red. They contain 28 lengths -  14 Designs x 2 pieces of each 6cm x 108cm approx "
Single Strips,STRI,,,,Single Strips,This is where you get to make your own bundle of Jelly Rolls. All you need to do is choose 10 fabrics  and we give you 2 strips of each fabric you choose. This gives you a total of 20 strips of fabric.
Oranges,STRI01,STRI,$1.30,,Single Strips,This is where you get to make your own bundle of Jelly Rolls. All you need to do is choose 10 fabrics  and we give you 2 strips of each fabric you choose. This gives you a total of 20 strips of fabric.
Blues,STRI02,STRI,$1.30,,Single Strips,This is where you get to make your own bundle of Jelly Rolls. All you need to do is choose 10 fabrics  and we give you 2 strips of each fabric you choose. This gives you a total of 20 strips of fabric.
Pinks,STRI03,STRI,$1.30,,Single Strips,This is where you get to make your own bundle of Jelly Rolls. All you need to do is choose 10 fabrics  and we give you 2 strips of each fabric you choose. This gives you a total of 20 strips of fabric.
Blacks,STRI04,STRI,$1.30,,Single Strips,This is where you get to make your own bundle of Jelly Rolls. All you need to do is choose 10 fabrics  and we give you 2 strips of each fabric you choose. This gives you a total of 20 strips of fabric.
White,STRI05,STRI,$1.30,,Single Strips,This is where you get to make your own bundle of Jelly Rolls. All you need to do is choose 10 fabrics  and we give you 2 strips of each fabric you choose. This gives you a total of 20 strips of fabric.
Purples,STRI06,STRI,$1.30,,Single Strips,This is where you get to make your own bundle of Jelly Rolls. All you need to do is choose 10 fabrics  and we give you 2 strips of each fabric you choose. This gives you a total of 20 strips of fabric.
Yellows,STRI07,STRI,$1.30,,Single Strips,This is where you get to make your own bundle of Jelly Rolls. All you need to do is choose 10 fabrics  and we give you 2 strips of each fabric you choose. This gives you a total of 20 strips of fabric.
Greens,STRI08,STRI,$1.30,,Single Strips,This is where you get to make your own bundle of Jelly Rolls. All you need to do is choose 10 fabrics  and we give you 2 strips of each fabric you choose. This gives you a total of 20 strips of fabric.
Creams,STRI09,STRI,$1.30,,Single Strips,This is where you get to make your own bundle of Jelly Rolls. All you need to do is choose 10 fabrics  and we give you 2 strips of each fabric you choose. This gives you a total of 20 strips of fabric.
FAT QUARTERS,FQ,,,,FAT QUARTERS,These Fat Quarters measure 50 x 50cm.
Oranges,FQ01,FQ,$3.00,,FAT QUARTERS,These Fat Quarters measure 50 x 50cm.
Blues,FQ02,FQ,$3.00,,FAT QUARTERS,These Fat Quarters measure 50 x 50cm.
Pinks,FQ03,FQ,$3.00,,FAT QUARTERS,These Fat Quarters measure 50 x 50cm.
Blacks,FQ04,FQ,$3.00,,FAT QUARTERS,These Fat Quarters measure 50 x 50cm.
White,FQ05,FQ,$3.00,,FAT QUARTERS,These Fat Quarters measure 50 x 50cm.
Purples,FQ06,FQ,$3.00,,FAT QUARTERS,These Fat Quarters measure 50 x 50cm.
Yellows,FQ07,FQ,$3.00,,FAT QUARTERS,These Fat Quarters measure 50 x 50cm.
Greens,FQ08,FQ,$3.00,,FAT QUARTERS,These Fat Quarters measure 50 x 50cm.
Creams,FQ09,FQ,$3.00,,FAT QUARTERS,These Fat Quarters measure 50 x 50cm.
